{
	"installation-path": "sbg-modules",
	"dependencies": [
		{
			"name": "subgine",
			"target": "subgine::common",
			"repository": "ssh://git@gufide.mooo.com/diffusion/SBG/subgine.git",
			"branch": "master",
			"ignore-version": true
		}
	]
}
