{
	"entity": {
		"spaceship-explosion1": {
			"components": {
				"transform": {
					"z": 0.5
				},
				"physicpoint": {
					"type": "physicPoint",
					"velocity": [0, 50],
					"position": [0, 30],
					"mass": 1
				},
				"aseprite-animation": {
					"source": {
						"$entry-type": "document",
						"path": "spaceshooter/animation/explosion.cbor"
					},
					"model": "explosion",
					"default": "loop"
				},
				"visual": {
					"models": {
						"explosion": {
							"$entry-type": "database",
							"table": "model",
							"name": "spaceship-explosion1"
						}
					}
				}
			},
			"bindings": [
				{"type": "physic"},
				{"type": "view"},
				{"type": "remove", "data": { "lifetime": 560 }}
			]
		},
		"enemy-spawner": {
			"components": {
				"enemy-spawner": {}
			},
			"bindings": [
				{"type": "spawner"}
			]
		},
		"enemy1": {
			"components": {
				"transform": {
					"z": 0.4
				},
				"physicpoint": {
					"type": "physicPoint",
					"mass": 1
				},
				"collision": {
					"$entry-type": "database",
					"table": "collisionbody",
					"name": "enemy-small-square"
				},
				"visual": {
					"models": {
						"spaceship": {
							"type": "simple-sprite",
							"data": {
								"painter": "ships",
								"steps": ["default"],
								"scale": [32, 32],
								"texture": "enemy1"
							}
						}
					}
				},
				"spaceship": {
					"mainWeapon": {
						"bullets": "minigun-bullet",
						"cooldown": 40,
						"delay": 100,
						"offset": [12, 10],
						"accuracy": 0.98,
						"mirroired": true
					}
				},
				"enemy": {},
				"health": {
					"health": 10,
					"shield": 0,
					"max-health": 10,
					"max-shield": 0,
					"max-damage": 8,
					"death": "spaceship-explosion1",
					"delay": 100
				}
			},
			"bindings": [
				{"type": "view"},
				{"type": "physic"},
				{"type": "collision"},
				{"type": "shooting"},
				{"type": "enemy-path"}
			]
		},
		"minigun-bullet": {
			"components": {
				"transform": {
					"z": 0.7
				},
				"physicpoint": {
					"$entry-type": "database",
					"table": "physicPoint",
					"name": "minigun-bullet"
				},
				"collision": {
					"$entry-type": "database",
					"table": "collisionbody",
					"name": "minigun-bullet"
				},
				"visual": {
					"models": {
						"bullet": {
							"type": "simple-sprite",
							"data": {
								"painter": "bullets",
								"steps": ["default"],
								"scale": [2, 2],
								"texture": "minigun-bullet"
							}
						}
					}
				},
				"health": {
					"health": 1,
					"shield": 0,
					"max-health": 1,
					"max-shield": 0,
					"max-damage": 1,
					"death": "",
					"delay": 0
				}
			},
			"bindings": [
				{"type": "view"},
				{"type": "physic"},
				{"type": "collision"}
			]
		},
		"spaceship": {
			"components": {
				"transform": {
					"z": 0.4
				},
				"physicpoint": {
					"$entry-type": "database",
					"table": "physicPoint",
					"name": "spaceship"
				},
				"collision": {
					"$entry-type": "database",
					"table": "collisionbody",
					"name": "spaceship"
				},
				"spaceship-control": {},
				"visual": {
					"models": {
						"ship": {
							"$entry-type": "database",
							"table": "model",
							"name": "spaceship"
						}
					}
				},
				"spaceship": {
					"mainWeapon": {
						"bullets": "minigun-bullet",
						"cooldown": 40,
						"delay": 100,
						"offset": [12, 10],
						"accuracy": 0.98,
						"mirroired": true
					}
				},
				"health": {
					"health": 100,
					"shield": 0,
					"max-health": 100,
					"max-shield": 0,
					"max-damage": 20,
					"death": "",
					"delay": 1000
				}
			},
			"bindings": [
				{"type": "view"},
				{"type": "physic"},
				{"type": "collision"},
				{"type": "spaceship-control"},
				{"type": "shooting"}
			]
		},
		"camera-spaceship-level": {
			"components": {
				"camera": {
					"projection": {
						"type": "window-ortho-transform-fixed-height",
						"data": {
							"height": 540
						}
					},
					"view": {
						"type": "identity"
					}
				},
				"collision": {
					"$entry-type": "database",
					"table": "collisionbody",
					"name": "camera-spaceship-level"
				}
			},
			"bindings": [
				{"type": "collision"}
			]
		}
	}
}
