{
	"collisionbody": {
		"happy-block": {
			"profiles": {
				"box": {
					"type": "square",
					"data": {
						"width": 32,
						"height": 32,
						"groups": ["blocks"],
						"colliding": ["map", "blocks"],
						"reactors": [
							{"group": "map", "type": "static2D-tilemap"},
							{"group": "blocks", "type": "reciprocal2D"}
						]
					}
				}
			}
		},
		"happy-bomb": {
			"profiles": {
				"box": {
					"type": "square",
					"data": {
						"width": 16,
						"height": 16,
						"groups": ["bombs"],
						"colliding": ["map"],
						"reactors": [
							{"group": "map", "type": "static2D-tilemap"}
						]
					}
				}
			}
		},
		"course-big-bomb": {
			"profiles": {
				"box": {
					"type": "square",
					"data": {
						"width": 24,
						"height": 24,
						"groups": ["bombs"],
						"colliding": ["map"],
						"reactors": [
							{"group": "map", "type": "static2D-tilemap"}
						]
					}
				}
			}
		},
		"course-button": {
			"profiles": {
				"trigger": {
					"type": "square",
					"data": {
						"width": 6,
						"height": 4,
						"offset": [16, 24],
						"groups": ["buttons"],
						"colliding": ["blocks"],
						"reactors": [
							{"group": "blocks", "type": "detonate"},
							{"group": "blocks", "type": "press"}
						]
					}
				}
			}
		}
	}
}
