{
	"entity": {
		"button": {
			"components": {
				"collision": {
					"$entry-type": "database",
					"table": "collisionbody",
					"name": "button"
				},
				"visual": {
					"models": {
						"button": {
							"$entry-type": "database",
							"table": "model",
							"name": "button"
						},
						"text": {
							"$entry-type": "database",
							"table": "model",
							"name": "button-text"
						}
					}
				}
			},
			"bindings": [
				{"type": "view"},
				{"type": "menu"}
			]
		},
		"embryo": {
			"components": {
				"transform": {
					"z": 0.4
				},
				"visual": {
					"models": {
						"embryo": {
							"$entry-type": "database",
							"table": "model",
							"name": "embryo"
						}
					}
				}
			},
			"bindings": [
				{"type": "view"}
			]
		},
		"camera-menu-background": {
			"components": {
				"camera": {
					"projection": {
						"type": "menu-background-integral-scaling",
						"data": {
							"height": 800
						}
					},
					"view": {
						"type": "menu-background-scrolling",
						"data": {
							"speed": -44
						}
					}
				}
			},
			"bindings": []
		}
	}
}
